#Lieu;
#Char;
#Char;
#vide;
#vide;
- Ceci est une balise de texte;
- Pour faire une retour à la ligne, utilisez~comme ça !;
- N'oubliez pas un point en fin de ligne;
- Il est possible de changer de layout, il faut cependant mettre les cinq champs;
#Lieu;
#Char;
#vide;
#vide;
#vide;
- Pour proposer un choix, mettez des balises ">" ainsi qu'un "-";
> Choix vers 1;
> Choix vers 2;
- Faites votre choix;
<1;
<2;