#Lieu;
#Char;
#Char;
#vide;
#vide;
- Pour écrire le nom du personnage, utilisez $;
- Pour changer la frame d'un personnage, utilisez "[xy" avec x l'id du personnage et y la frame;
[01;
- Certaines actions spéciales peuvent être effectuées;
@FinalScene;